Diamonds Price Estimation
…
set.seed(503)
library(tidyverse)
library(dplyr)
library(ggplot2)
library(psych)
getwd()

## [1] "C:/Users/merye/Documents/GitHub/pj-MeryemKemerci"

data<-read.csv("C:\\Users\\merye\\Desktop\\diamonds.csv")

data %>%
  tbl_df() 

## # A tibble: 53,940 x 11
##        X carat       cut  color clarity depth table price     x     y
##    <int> <dbl>    <fctr> <fctr>  <fctr> <dbl> <dbl> <int> <dbl> <dbl>
##  1     1  0.23     Ideal      E     SI2  61.5    55   326  3.95  3.98
##  2     2  0.21   Premium      E     SI1  59.8    61   326  3.89  3.84
##  3     3  0.23      Good      E     VS1  56.9    65   327  4.05  4.07
##  4     4  0.29   Premium      I     VS2  62.4    58   334  4.20  4.23
##  5     5  0.31      Good      J     SI2  63.3    58   335  4.34  4.35
##  6     6  0.24 Very Good      J    VVS2  62.8    57   336  3.94  3.96
##  7     7  0.24 Very Good      I    VVS1  62.3    57   336  3.95  3.98
##  8     8  0.26 Very Good      H     SI1  61.9    55   337  4.07  4.11
##  9     9  0.22      Fair      E     VS2  65.1    61   337  3.87  3.78
## 10    10  0.23 Very Good      H     VS1  59.4    61   338  4.00  4.05
## # ... with 53,930 more rows, and 1 more variables: z <dbl>
…
